{
    "data": [
        {
            "name": "Forest",
            "skin": "forest_2",
            "x": 10,
            "y": 0,
            "content": null
        },
        {
            "name": "Forest",
            "skin": "forest_2",
            "x": 11,
            "y": 0,
            "content": null
        },
        {
            "name": "Forest",
            "skin": "forest_3",
            "x": -5,
            "y": 1,
            "content": null
        },
        {
            "name": "Forest",
            "skin": "forest_3",
            "x": -4,
            "y": 1,
            "content": null
        },
        {
            "name": "Forest",
            "skin": "forest_3",
            "x": -3,
            "y": 1,
            "content": null
        },
        {
            "name": "Forest",
            "skin": "forest_wolf1",
            "x": -2,
            "y": 1,
            "content": {
                "type": "monster",
                "code": "wolf"
            }
        },
        {
            "name": "Forest",
            "skin": "forest_1",
            "x": -1,
            "y": 1,
            "content": null
        },
        {
            "name": "City",
            "skin": "forest_chicken1",
            "x": 0,
            "y": 1,
            "content": {
                "type": "monster",
                "code": "chicken"
            }
        },
        {
            "name": "City",
            "skin": "forest_cs1",
            "x": 1,
            "y": 1,
            "content": {
                "type": "workshop",
                "code": "cooking"
            }
        },
        {
            "name": "City",
            "skin": "forest_wcstation1",
            "x": 2,
            "y": 1,
            "content": {
                "type": "workshop",
                "code": "weaponcrafting"
            }
        },
        {
            "name": "City",
            "skin": "forest_gcstation1",
            "x": 3,
            "y": 1,
            "content": {
                "type": "workshop",
                "code": "gearcrafting"
            }
        },
        {
            "name": "City",
            "skin": "forest_bank1",
            "x": 4,
            "y": 1,
            "content": {
                "type": "bank",
                "code": "bank"
            }
        },
        {
            "name": "City",
            "skin": "forest_grand_exchange1",
            "x": 5,
            "y": 1,
            "content": {
                "type": "grand_exchange",
                "code": "grand_exchange"
            }
        },
        {
            "name": "Forest",
            "skin": "forest_ashtree1",
            "x": 6,
            "y": 1,
            "content": {
                "type": "resource",
                "code": "ash_tree"
            }
        },
        {
            "name": "Forest",
            "skin": "forest_2",
            "x": 7,
            "y": 1,
            "content": null
        },
        {
            "name": "Forest",
            "skin": "forest_3",
            "x": 8,
            "y": 1,
            "content": null
        },
        {
            "name": "Forest",
            "skin": "forest_3",
            "x": 9,
            "y": 1,
            "content": null
        },
        {
            "name": "Forest",
            "skin": "forest_owlbear1",
            "x": 10,
            "y": 1,
            "content": {
                "type": "monster",
                "code": "owlbear"
            }
        },
        {
            "name": "Forest",
            "skin": "forest_3",
            "x": 11,
            "y": 1,
            "content": null
        },
        {
            "name": "Forest",
            "skin": "forest_1",
            "x": -5,
            "y": 2,
            "content": null
        },
        {
            "name": "Forest",
            "skin": "forest_1",
            "x": -4,
            "y": 2,
            "content": null
        },
        {
            "name": "Forest",
            "skin": "forest_1",
            "x": -3,
            "y": 2,
            "content": null
        },
        {
            "name": "Forest",
            "skin": "forest_3",
            "x": -2,
            "y": 2,
            "content": null
        },
        {
            "name": "Forest",
            "skin": "forest_2",
            "x": -1,
            "y": 2,
            "content": null
        },
        {
            "name": "City",
            "skin": "forest_cow1",
            "x": 0,
            "y": 2,
            "content": {
                "type": "monster",
                "code": "cow"
            }
        },
        {
            "name": "City",
            "skin": "forest_village3",
            "x": 1,
            "y": 2,
            "content": {
                "type": "tasks_master",
                "code": "monsters"
            }
        },
        {
            "name": "City",
            "skin": "forest_village1",
            "x": 2,
            "y": 2,
            "content": null
        },
        {
            "name": "City",
            "skin": "forest_village2",
            "x": 3,
            "y": 2,
            "content": null
        },
        {
            "name": "Lake",
            "skin": "forest_lake3",
            "x": 4,
            "y": 2,
            "content": {
                "type": "resource",
                "code": "gudgeon_fishing_spot"
            }
        },
        {
            "name": "Lake",
            "skin": "forest_lake4",
            "x": 5,
            "y": 2,
            "content": {
                "type": "resource",
                "code": "shrimp_fishing_spot"
            }
        },
        {
            "name": "Forest",
            "skin": "forest_4",
            "x": 6,
            "y": 2,
            "content": null
        },
        {
            "name": "Forest",
            "skin": "forest_4",
            "x": 7,
            "y": 2,
            "content": null
        },
        {
            "name": "Forest",
            "skin": "forest_2",
            "x": 8,
            "y": 2,
            "content": null
        },
        {
            "name": "Forest",
            "skin": "forest_4",
            "x": 9,
            "y": 2,
            "content": null
        },
        {
            "name": "Forest",
            "skin": "forest_owlbear2",
            "x": 10,
            "y": 2,
            "content": {
                "type": "monster",
                "code": "owlbear"
            }
        },
        {
            "name": "Forest",
            "skin": "forest_4",
            "x": 11,
            "y": 2,
            "content": null
        },
        {
            "name": "Forest",
            "skin": "forest_2",
            "x": -5,
            "y": 3,
            "content": null
        },
        {
            "name": "Forest",
            "skin": "forest_2",
            "x": -4,
            "y": 3,
            "content": null
        },
        {
            "name": "Forest",
            "skin": "forest_2",
            "x": -3,
            "y": 3,
            "content": null
        },
        {
            "name": "Forest",
            "skin": "forest_1",
            "x": -2,
            "y": 3,
            "content": null
        },
        {
            "name": "Forest",
            "skin": "forest_4",
            "x": -1,
            "y": 3,
            "content": null
        },
        {
            "name": "Forest",
            "skin": "forest_2",
            "x": 0,
            "y": 3,
            "content": null
        },
        {
            "name": "City",
            "skin": "forest_jewelrycrafting1",
            "x": 1,
            "y": 3,
            "content": {
                "type": "workshop",
                "code": "jewelrycrafting"
            }
        },
        {
            "name": "Forest",
            "skin": "forest_village4",
            "x": 2,
            "y": 3,
            "content": null
        },
        {
            "name": "Forest",
            "skin": "forest_2",
            "x": 3,
            "y": 3,
            "content": null
        },
        {
            "name": "Forest",
            "skin": "forest_2",
            "x": 4,
            "y": 3,
            "content": null
        },
        {
            "name": "Forest",
            "skin": "forest_mushmush1",
            "x": 5,
            "y": 3,
            "content": {
                "type": "monster",
                "code": "mushmush"
            }
        },
        {
            "name": "Forest",
            "skin": "forest_4",
            "x": 6,
            "y": 3,
            "content": null
        },
        {
            "name": "Forest",
            "skin": "forest_1",
            "x": 7,
            "y": 3,
            "content": null
        },
        {
            "name": "Forest",
            "skin": "forest_1",
            "x": 8,
            "y": 3,
            "content": null
        },
        {
            "name": "Forest",
            "skin": "forest_1",
            "x": 9,
            "y": 3,
            "content": null
        },
        {
            "name": "Forest",
            "skin": "forest_3",
            "x": 10,
            "y": 3,
            "content": null
        },
        {
            "name": "Forest",
            "skin": "forest_1",
            "x": 11,
            "y": 3,
            "content": null
        },
        {
            "name": "Forest",
            "skin": "forest_3",
            "x": -5,
            "y": 4,
            "content": null
        },
        {
            "name": "Forest",
            "skin": "forest_3",
            "x": -4,
            "y": 4,
            "content": null
        },
        {
            "name": "Forest",
            "skin": "forest_3",
            "x": -3,
            "y": 4,
            "content": null
        },
        {
            "name": "Forest",
            "skin": "forest_2",
            "x": -2,
            "y": 4,
            "content": null
        },
        {
            "name": "Forest",
            "skin": "forest_1",
            "x": -1,
            "y": 4,
            "content": null
        },
        {
            "name": "Forest",
            "skin": "forest_3",
            "x": 0,
            "y": 4,
            "content": null
        },
        {
            "name": "Forest",
            "skin": "forest_3",
            "x": 1,
            "y": 4,
            "content": null
        },
        {
            "name": "Forest",
            "skin": "forest_village5",
            "x": 2,
            "y": 4,
            "content": null
        },
        {
            "name": "Forest",
            "skin": "forest_1",
            "x": 3,
            "y": 4,
            "content": null
        },
        {
            "name": "Forest",
            "skin": "forest_2",
            "x": 4,
            "y": 4,
            "content": null
        },
        {
            "name": "Forest",
            "skin": "forest_flyingserpent1",
            "x": 5,
            "y": 4,
            "content": {
                "type": "monster",
                "code": "flying_serpent"
            }
        },
        {
            "name": "Forest",
            "skin": "forest_mushmush2",
            "x": 6,
            "y": 4,
            "content": {
                "type": "monster",
                "code": "mushmush"
            }
        },
        {
            "name": "Forest",
            "skin": "forest_flyingserpent2",
            "x": 7,
            "y": 4,
            "content": {
                "type": "monster",
                "code": "flying_serpent"
            }
        },
        {
            "name": "Forest",
            "skin": "forest_2",
            "x": 8,
            "y": 4,
            "content": null
        },
        {
            "name": "Forest",
            "skin": "forest_2",
            "x": 9,
            "y": 4,
            "content": null
        },
        {
            "name": "Forest",
            "skin": "forest_2",
            "x": 10,
            "y": 4,
            "content": null
        },
        {
            "name": "Forest",
            "skin": "forest_2",
            "x": 11,
            "y": 4,
            "content": null
        },
        {
            "name": "Forest",
            "skin": "forest_3",
            "x": -5,
            "y": 5,
            "content": null
        },
        {
            "name": "Forest",
            "skin": "forest_3",
            "x": -4,
            "y": 5,
            "content": null
        },
        {
            "name": "Forest",
            "skin": "forest_4",
            "x": -3,
            "y": 5,
            "content": null
        },
        {
            "name": "Forest",
            "skin": "forest_1",
            "x": -2,
            "y": 5,
            "content": null
        },
        {
            "name": "Forest",
            "skin": "forest_3",
            "x": -1,
            "y": 5,
            "content": null
        },
        {
            "name": "Forest",
            "skin": "forest_2",
            "x": 0,
            "y": 5,
            "content": null
        },
        {
            "name": "Forest (Forge)",
            "skin": "forest_miningstation1",
            "x": 1,
            "y": 5,
            "content": {
                "type": "workshop",
                "code": "mining"
            }
        },
        {
            "name": "Forest",
            "skin": "forest_village6",
            "x": 2,
            "y": 5,
            "content": null
        },
        {
            "name": "Forest",
            "skin": "forest_birchtree2",
            "x": 3,
            "y": 5,
            "content": {
                "type": "resource",
                "code": "birch_tree"
            }
        },
        {
            "name": "Forest",
            "skin": "forest_2",
            "x": 4,
            "y": 5,
            "content": null
        },
        {
            "name": "Forest",
            "skin": "forest_3",
            "x": 5,
            "y": 5,
            "content": null
        },
        {
            "name": "Forest",
            "skin": "forest_3",
            "x": 6,
            "y": 5,
            "content": null
        },
        {
            "name": "Forest",
            "skin": "forest_3",
            "x": 7,
            "y": 5,
            "content": null
        },
        {
            "name": "Forest",
            "skin": "forest_3",
            "x": 8,
            "y": 5,
            "content": null
        },
        {
            "name": "Forest",
            "skin": "forest_3",
            "x": 9,
            "y": 5,
            "content": null
        },
        {
            "name": "Forest",
            "skin": "forest_3",
            "x": 10,
            "y": 5,
            "content": null
        },
        {
            "name": "Forest",
            "skin": "forest_3",
            "x": 11,
            "y": 5,
            "content": null
        },
        {
            "name": "Forest",
            "skin": "forest_1",
            "x": -5,
            "y": 6,
            "content": null
        },
        {
            "name": "Forest",
            "skin": "forest_4",
            "x": -4,
            "y": 6,
            "content": null
        },
        {
            "name": "Forest",
            "skin": "forest_4",
            "x": -3,
            "y": 6,
            "content": null
        },
        {
            "name": "Forest",
            "skin": "forest_3",
            "x": -2,
            "y": 6,
            "content": null
        },
        {
            "name": "Forest",
            "skin": "forest_birchtree1",
            "x": -1,
            "y": 6,
            "content": {
                "type": "resource",
                "code": "birch_tree"
            }
        },
        {
            "name": "Forest",
            "skin": "forest_2",
            "x": 0,
            "y": 6,
            "content": null
        },
        {
            "name": "Forest",
            "skin": "forest_coal1",
            "x": 1,
            "y": 6,
            "content": {
                "type": "resource",
                "code": "coal_rocks"
            }
        },
        {
            "name": "Forest",
            "skin": "forest_sprucetree2",
            "x": 2,
            "y": 6,
            "content": {
                "type": "resource",
                "code": "spruce_tree"
            }
        },
        {
            "name": "Forest",
            "skin": "forest_1",
            "x": 3,
            "y": 6,
            "content": null
        },
        {
            "name": "Forest",
            "skin": "forest_2",
            "x": 4,
            "y": 6,
            "content": null
        },
        {
            "name": "Forest",
            "skin": "forest_2",
            "x": 5,
            "y": 6,
            "content": null
        },
        {
            "name": "Forest",
            "skin": "forest_3",
            "x": 6,
            "y": 6,
            "content": null
        },
        {
            "name": "Forest",
            "skin": "forest_2",
            "x": 7,
            "y": 6,
            "content": null
        }
    ],
    "total": 357,
    "page": 2,
    "size": 100,
    "pages": 4
}